^C:\USERS\USER1\DOCUMENTS\VISUAL STUDIO 2015\PROJECTS\OBOLOCHKA\OBOLOCHKA\MAIN.CPP
C:\USERS\USER1\DOCUMENTS\VISUAL STUDIO 2015\PROJECTS\OBOLOCHKA\OBOLOCHKA\DEBUG\VC140.PDB
C:\USERS\USER1\DOCUMENTS\VISUAL STUDIO 2015\PROJECTS\OBOLOCHKA\OBOLOCHKA\DEBUG\VC140.IDB
C:\USERS\USER1\DOCUMENTS\VISUAL STUDIO 2015\PROJECTS\OBOLOCHKA\OBOLOCHKA\DEBUG\MAIN.OBJ
