^C:\USERS\USER1\DOCUMENTS\VISUAL STUDIO 2015\PROJECTS\OBOLOCHKA\OBOLOCHKA\DEBUG\MAIN.OBJ
C:\USERS\USER1\DOCUMENTS\VISUAL STUDIO 2015\PROJECTS\OBOLOCHKA\DEBUG\OBOLOCHKA.ILK
C:\USERS\USER1\DOCUMENTS\VISUAL STUDIO 2015\PROJECTS\OBOLOCHKA\DEBUG\OBOLOCHKA.EXE
C:\USERS\USER1\DOCUMENTS\VISUAL STUDIO 2015\PROJECTS\OBOLOCHKA\DEBUG\OBOLOCHKA.PDB
